1,40.7459,-73.98
2,40.6798,-73.9848
3,40.745,-73.9821
4,40.7993,-73.9513
5,40.7235,-74.033
6,40.7485,-73.9528
7,40.779,-73.9586
8,40.7711,-73.9833
9,40.7308,-73.9819
10,40.7488,-73.9819
11,40.7308,-73.9839
12,40.707,-73.8847
13,40.9103,-73.9065
14,40.7419,-73.9891
15,40.7555,-73.9835
16,40.8585,-74.0093
17,40.7745,-74.0995
18,40.7119,-73.9878
19,40.761,-74.0309
20,40.6535,-73.9739
21,40.7532,-73.9715
22,40.7339,-73.9767
23,40.765,-73.9621
24,40.7861,-73.9803
25,40.7679,-73.9797
26,40.8826,-74.0372
27,40.844,-73.9269
28,40.7425,-74.0446
29,40.6744,-73.975
30,40.7216,-74.0075
31,40.7473,-73.9038
32,40.7211,-74.0019
33,40.7128,-73.9503
34,40.7465,-73.9097
35,40.6955,-73.9678
36,40.7451,-74.0133
37,40.7632,-73.988
38,40.8157,-73.9099
39,40.7249,-73.9898
40,40.7502,-73.8695
41,40.6695,-73.9835
42,40.7069,-73.9694
43,40.7561,-73.8349
44,40.7451,-74.2021
45,40.7466,-73.9947
46,40.7356,-73.9034
47,40.7394,-73.9756
48,40.7215,-73.9707
49,40.8009,-73.9685
50,40.7254,-73.9293
51,40.7272,-73.9712
52,40.7413,-73.9911
53,40.8718,-74.0628
54,40.7305,-73.9885
55,40.7343,-73.9993
56,40.7365,-73.9764
57,40.7944,-74.0716
58,40.7444,-73.9675
59,40.7505,-73.8776
60,40.7639,-74.1885
61,40.814,-73.9306
62,40.7515,-73.9683
63,40.7244,-73.9723
64,40.7379,-73.9809
65,40.7672,-74.0981
66,40.7694,-73.9537
67,40.8467,-73.8694
68,40.7422,-74.0051
69,40.716,-73.8883
70,40.7353,-73.9439
71,40.7438,-73.9943
72,40.6731,-73.9847
73,40.8114,-73.9394
74,40.7453,-74.0877
75,40.7639,-73.984
76,40.7359,-73.9429
77,40.8071,-73.9126
78,40.6995,-73.966
79,40.7187,-73.9861
80,40.7108,-73.9637
81,40.7674,-73.9591
82,40.7656,-73.7594
83,40.7635,-74.0707
84,40.7523,-73.9506
85,40.7052,-73.9922
86,40.7306,-73.9794
87,40.7342,-73.9825
88,40.7251,-73.974
89,40.7859,-73.9442
90,40.7465,-73.9794
91,40.7337,-73.8247
92,40.7668,-73.9754
93,40.7261,-73.9834
94,40.6734,-73.9684
95,40.7507,-73.8786
96,40.7463,-73.9865
97,40.7134,-73.979
98,40.73,-73.9745
99,40.8926,-73.9962
100,40.7774,-73.9794
101,40.7214,-73.9706
102,40.7162,-73.974
103,40.7415,-73.9844
104,40.7228,-74.004
105,40.8866,-74.0465
106,40.7571,-73.9796
107,40.7502,-73.8995
108,40.7517,-73.998
109,40.7393,-73.9849
110,40.75,-74.0805
111,40.7754,-74.1334
112,40.7149,-73.9567
113,40.7593,-73.8873
114,40.7292,-73.995
115,40.7037,-73.9792
116,40.7295,-73.9766
117,40.7109,-73.9875
118,40.6014,-73.9266
119,40.7612,-73.9763
120,40.644,-73.9843
121,40.6388,-73.9926
122,40.7371,-73.9795
123,40.7478,-73.9351
124,40.749,-73.9849
125,40.7668,-74.0101
126,40.698,-73.9943
127,40.7222,-73.9666
128,40.748,-73.9942
129,40.7427,-73.9785
130,40.7504,-73.9895
131,40.7588,-73.9698
132,40.7328,-73.9903
133,40.829,-74.1048
134,40.7483,-73.9829
135,40.7378,-73.9937
136,40.7372,-74.0002
137,40.7409,-74.01
138,40.7295,-73.9464
139,40.7886,-73.9419
140,40.7277,-73.9925
141,40.7338,-73.8608
142,40.7224,-73.958
143,40.7282,-73.838
144,40.7714,-73.9439
145,40.7457,-73.9813
146,40.7783,-73.9485
147,40.7978,-74.1359
148,40.7021,-73.9572
149,40.7562,-73.9256
150,40.7657,-73.9844
151,40.7352,-73.9845
152,40.7423,-73.9908
153,40.7604,-73.9831
154,40.6766,-73.9566
155,40.7371,-73.9918
156,40.7203,-74.0029
157,40.7677,-73.9632
158,40.7369,-73.9829
159,40.7903,-74.0299
160,40.7212,-73.9942
161,40.7129,-73.981
162,40.7114,-73.9699
163,40.7232,-73.9661
164,40.7352,-73.9894
165,40.7192,-74.0037
166,40.7235,-73.9808
167,40.7373,-73.9962
168,40.7317,-74.0608
169,40.7364,-73.9796
170,40.7261,-74.0039
171,40.739,-73.9905
172,40.7406,-73.9579
173,40.7768,-73.9019
174,40.6205,-74.03
175,40.7379,-73.9859
176,40.7338,-73.9788
177,40.7313,-73.9762
178,40.8099,-73.9457
179,40.9121,-74.0901
180,40.8494,-74.0278
181,40.6949,-73.9271
182,40.7947,-73.9597
183,40.6437,-73.9588
184,40.7265,-73.9656
185,40.9584,-74.0643
186,40.8082,-73.9483
187,40.7596,-73.8703
188,40.7423,-74.0228
189,40.7991,-74.1289
190,40.739,-73.9727
191,40.7369,-73.8875
192,40.7358,-73.9865
193,40.7789,-73.9518
194,40.6151,-73.8892
195,40.762,-73.9802
196,40.7538,-73.9711
197,40.7251,-73.9733
198,40.7277,-73.9959
199,40.7407,-73.9348
200,40.7641,-73.965
201,40.7618,-73.9533
202,40.7227,-73.984
203,40.7516,-73.9603
204,40.664,-73.8869
205,40.7328,-74.2155
206,40.7415,-73.9833
207,40.8693,-74.0748
208,40.732,-73.9976
209,40.6953,-73.8159
210,40.8711,-74.0352
211,40.7137,-73.8511
212,40.732,-73.9885
213,40.7532,-73.9714
214,40.7688,-73.9656
215,40.7381,-74.1258
216,40.7404,-74.0286
217,40.7779,-73.9525
218,40.7177,-73.9649
219,40.7283,-73.9828
220,40.7475,-73.9642
221,40.8298,-73.9254
222,40.7504,-73.9654
223,40.7533,-73.9562
224,40.7458,-73.8988
225,40.745,-73.8377
226,40.7585,-73.9842
227,40.7773,-74.1107
228,40.851,-73.9158
229,40.7056,-73.9598
230,40.7183,-73.9632
231,40.7265,-73.9789
232,40.7986,-73.9902
233,40.7401,-73.9793
234,40.7408,-73.9805
235,40.7657,-73.9754
236,40.8093,-73.964
237,40.8203,-73.7374
238,40.7716,-73.9118
239,40.7162,-73.9235
240,40.702,-73.9759
241,40.7249,-74.0317
242,40.7282,-73.7675
243,40.6761,-73.9827
244,40.7566,-73.9702
245,40.7299,-73.9856
246,40.7564,-73.9705
247,40.7499,-73.9787
248,40.7189,-73.9594
249,40.732,-73.98
250,40.6756,-73.9733
251,40.7398,-73.9893
252,40.7451,-73.9557
253,40.7934,-73.9964
254,40.8129,-73.9448
255,40.7013,-73.971
256,40.7389,-73.9863
257,40.7602,-73.9733
258,40.6229,-73.9986
259,40.8917,-74.1141
260,40.7527,-73.9873
261,40.708,-73.835
262,40.9013,-73.8672
263,40.7258,-73.9814
264,40.7354,-73.9211
265,40.7603,-73.9806
266,40.71,-73.9481
267,40.8393,-73.8789
268,40.7735,-73.9595
269,40.7573,-73.9781
270,40.7544,-73.9482
271,40.7959,-73.9666
272,40.7379,-73.8371
273,40.7902,-73.9706
274,40.7572,-73.9723
275,40.7355,-73.9998
276,40.7453,-73.9906
277,40.7519,-73.9732
278,40.6814,-73.9518
279,40.739,-73.996
280,40.7482,-73.9763
281,40.7655,-74.1517
282,40.7525,-73.9672
283,40.7378,-73.9841
284,40.7275,-73.9788
285,40.6981,-73.9562
286,40.7408,-73.9847
287,40.7687,-74.1999
288,40.7526,-73.978
289,40.8339,-73.9116
290,40.7373,-73.9924
291,40.7428,-73.9834
292,40.798,-73.9516
293,40.7088,-73.9587
294,40.7491,-73.9863
295,40.7422,-73.9833
296,40.7533,-73.9802
297,40.7494,-73.9602
298,40.7216,-73.9729
299,40.7312,-73.9702
300,40.8536,-74.0133
301,40.783,-73.9583
302,40.7351,-73.9526
303,40.7529,-73.9909
304,40.7392,-73.9371
305,40.771,-73.969
306,40.6716,-73.8656
307,40.7365,-74.0298
308,40.7319,-73.7443
309,40.76,-73.9694
310,40.7702,-73.9531
311,40.7406,-73.7973
312,40.7397,-73.986
313,40.7529,-73.9676
314,40.8175,-74.0327
315,40.6752,-73.8754
316,40.6669,-74.2261
317,40.7714,-73.9786
318,40.7172,-73.9893
319,40.6681,-74.0277
320,40.7299,-74.0007
321,40.7534,-74.0289
322,40.7625,-73.8331
323,40.7575,-73.9781
324,40.7393,-73.9633
325,40.759,-74.0094
326,40.7392,-74.1167
327,40.7655,-74.0003
328,40.7119,-73.9953
329,40.7321,-74.0111
330,40.7189,-73.9906
331,40.7403,-73.8935
332,40.8026,-73.9569
333,40.7115,-74.0146
334,40.7316,-74.0182
335,40.6519,-73.9322
336,40.7384,-73.975
337,40.8187,-74.1462
338,40.7219,-73.9924
339,40.7311,-73.9976
340,40.7139,-73.9814
341,40.7403,-73.9567
342,40.7485,-73.9859
343,40.6791,-73.8556
344,40.7506,-73.8949
345,40.7548,-73.9841
346,40.8651,-73.8714
347,40.9212,-74.0541
348,40.7215,-73.9665
349,40.7874,-73.9662
350,40.7681,-73.969
351,40.7357,-73.9464
352,40.7616,-73.9614
353,40.7343,-73.9831
354,40.6851,-73.9579
355,40.7294,-73.918
356,40.7178,-73.9656
357,40.7075,-73.9863
358,40.7378,-73.9673
359,40.8149,-73.9337
360,40.7227,-73.9638
361,40.7298,-73.9857
362,40.7367,-73.9963
363,40.7237,-73.9702
364,40.7655,-73.9568
365,40.7802,-73.9966
366,40.7413,-73.8334
367,40.7438,-73.9806
368,40.7615,-73.9712
369,40.7548,-73.9664
370,40.7346,-73.9844
371,40.778,-73.8035
372,40.7303,-73.9951
373,40.7743,-73.9602
374,40.7817,-74.0271
375,40.7341,-73.9851
376,40.7457,-74.0356
377,40.7394,-73.9723
378,40.8674,-74.0722
379,40.7974,-73.9179
380,40.5993,-73.8002
381,40.6494,-73.9562
382,40.8631,-73.8767
383,40.7577,-74.1668
384,40.7384,-73.9811
385,40.8487,-74.0858
386,40.7954,-74.1451
387,40.7964,-74.0974
388,40.7482,-73.9757
389,40.7575,-73.9707
390,40.7092,-73.9895
391,40.8048,-74.0912
392,40.7404,-73.9869
393,40.6902,-73.9679
394,40.791,-74.0376
395,40.7522,-73.9893
396,40.827,-73.9526
397,40.7341,-73.8934
398,40.7359,-73.8399
399,40.7464,-73.9829
400,40.7302,-73.9852
401,40.7219,-73.962
402,40.7578,-73.9765
403,40.7354,-74.0369
404,40.7192,-73.7917
405,40.7408,-73.9759
406,40.7199,-73.9819
407,40.7373,-73.9825
408,40.7736,-73.9631
409,40.7539,-73.9875
410,40.7212,-73.9667
411,40.7548,-73.9751
412,40.7636,-73.9206
413,40.7364,-73.943
414,40.7482,-73.9504
415,40.7644,-73.9804
416,40.74,-73.9762
417,40.7344,-73.9815
418,40.7471,-73.9961
419,40.7855,-74.0544
420,40.7574,-74.0088
421,40.7419,-73.9801
422,40.7413,-74.2182
423,40.7434,-73.9931
424,40.7052,-73.9822
425,40.9468,-74.103
426,40.862,-73.9007
427,40.7381,-73.9702
428,40.6445,-74.0228
429,40.6882,-74.0407
430,40.7485,-73.8369
431,40.7452,-73.9984
432,40.7947,-73.9576
433,40.7458,-73.9795
434,40.811,-74.032
435,40.7759,-73.9645
436,40.7457,-73.9747
437,40.7562,-73.9638
438,40.7662,-73.9688
439,40.782,-73.8428
440,40.7347,-74.0079
441,40.7483,-73.9377
442,40.7666,-73.9385
443,40.8045,-74.0036
444,40.7482,-73.9221
445,40.8061,-73.946
446,40.7179,-74.0588
447,40.7796,-74.1237
448,40.768,-73.9974
449,40.7199,-73.9753
450,40.7604,-73.9575
451,40.7908,-73.958
452,40.6011,-73.9809
453,40.7638,-73.9935
454,40.7489,-73.9947
455,40.7457,-73.8492
456,40.7492,-73.9928
457,40.7478,-73.9815
458,40.6759,-73.9253
459,40.796,-73.9663
460,40.7457,-73.9828
461,40.667,-73.9653
462,40.7266,-73.9886
463,40.7569,-73.9563
464,40.7651,-73.9809
465,40.7374,-73.9935
466,40.7486,-73.9756
467,40.7333,-74.0102
468,40.8733,-74.1073
469,40.7482,-73.944
470,40.746,-73.9814
471,40.7543,-73.9777
472,40.7263,-73.892
473,40.7731,-73.9557
474,40.6827,-73.9883
475,40.7303,-73.9878
476,40.7338,-73.9955
477,40.7201,-73.8509
478,40.8321,-73.9431
479,40.7761,-73.9511
480,40.7225,-73.8849
481,40.7113,-73.9964
482,40.6735,-74.0736
483,40.6374,-73.9351
484,40.7195,-73.9683
485,40.724,-73.9943
486,40.7297,-73.983
487,40.6669,-73.9463
488,40.8308,-73.9426
489,40.6671,-74.2041
490,40.8408,-74.0275
491,40.7428,-73.9869
492,40.7881,-74.1098
493,40.828,-73.9079
494,40.7205,-73.9754
495,40.7672,-73.9978
496,40.7879,-73.9569
497,40.8519,-73.9123
498,40.6419,-73.9652
499,40.7206,-73.9732
500,40.7357,-73.9764
501,40.7316,-73.98
502,40.757,-73.9984
503,40.7487,-73.9855
504,40.74,-73.9966
505,40.7518,-74.0118
506,40.729,-73.9677
507,40.7192,-73.9766
508,40.6013,-74.0949
509,40.7172,-73.9725
510,40.7475,-73.9467
511,40.7255,-73.9676
512,40.8543,-74.0857
513,40.7292,-73.9536
514,40.7022,-73.9788
515,40.7553,-73.9885
516,40.7293,-74.0283
517,40.7361,-73.9902
518,40.7152,-73.9811
519,40.7453,-73.9806
520,40.7409,-73.8922
521,40.6786,-73.9694
522,40.8384,-74.1737
523,40.7469,-73.9842
524,40.7762,-73.9145
525,40.9552,-74.0915
526,40.7328,-73.9764
527,40.7753,-73.9629
528,40.7148,-73.9979
529,40.7687,-73.9226
530,40.7398,-73.9925
531,40.9364,-73.9713
532,40.7315,-73.9845
533,40.8061,-74.1848
534,40.7094,-73.9803
535,40.727,-73.9749
536,40.7583,-73.9203
537,40.7586,-73.9619
538,40.7483,-73.9869
539,40.7531,-73.9762
540,40.6361,-73.7578
541,40.8955,-74.1059
542,40.7745,-73.9824
543,40.7502,-73.985
544,40.7491,-73.9765
545,40.6938,-73.9343
546,40.7226,-73.8496
547,40.7338,-73.9812
548,40.7498,-73.9812
549,40.6709,-74.0714
550,40.7343,-73.9902
551,40.7168,-73.9794
552,40.6994,-73.9302
553,40.7162,-73.876
554,40.7127,-73.8184
555,40.7579,-74.0035
556,40.6973,-74.0424
557,40.7245,-73.9894
558,40.7379,-73.98
559,40.7809,-73.9556
560,40.8016,-73.9143
561,40.7384,-73.9945
562,40.827,-73.9083
563,40.7238,-73.9704
564,40.7516,-73.9705
565,40.7665,-73.9603
566,40.7372,-73.9852
567,40.7602,-73.9611
568,40.7655,-73.9585
569,40.7557,-73.9947
570,40.7536,-73.9801
571,40.8085,-73.9447
572,40.7575,-73.9706
573,40.8292,-73.8583
574,40.7351,-73.9808
575,40.719,-73.9801
576,40.7383,-73.9096
577,40.7377,-73.992
578,40.7829,-73.959
579,40.6684,-73.9697
580,40.6345,-73.9995
581,40.7376,-73.9599
582,40.6334,-74.0611
583,40.7095,-73.9092
584,40.6843,-74.1772
585,40.9319,-73.8748
586,40.7466,-73.9825
587,40.7552,-73.9842
588,40.7489,-73.9778
589,40.9558,-73.974
590,40.7438,-73.8593
591,40.7279,-73.9919
592,40.6427,-74.0968
593,40.8117,-74.0654
594,40.7325,-73.9855
595,40.6258,-74.0984
596,40.8235,-74.1032
597,40.7306,-74.0536
598,40.7484,-73.9721
599,40.734,-73.9737
600,40.7488,-73.9886
601,40.7312,-73.9759
602,40.6892,-73.9662
603,40.6211,-74.1404
604,40.8953,-74.1506
605,40.7789,-73.98
606,40.7458,-73.9794
607,40.7144,-74.0378
608,40.7419,-73.9968
609,40.7557,-74.0483
610,40.7267,-73.9626
611,40.7362,-73.9884
612,40.7746,-73.9626
613,40.761,-73.97
614,40.7385,-73.9874
615,40.7403,-73.9881
616,40.7967,-73.9186
617,40.8111,-73.9893
618,40.7405,-73.9759
619,40.7461,-74.0774
620,40.8365,-73.9073
621,40.8239,-74.0311
622,40.8809,-73.9923
623,40.72,-73.9937
624,40.7623,-73.98
625,40.684,-73.9747
626,40.7732,-74.0783
627,40.8172,-74.0214
628,40.8119,-74.1831
629,40.7836,-73.9153
630,40.9016,-74.0458
631,40.8893,-74.0698
632,40.7691,-73.9707
633,40.7401,-73.9886
634,40.8169,-73.9937
635,40.6921,-73.9239
636,40.718,-74.0193
637,40.7071,-73.9818
638,40.7998,-73.934
639,40.7666,-73.9576
640,40.7436,-73.9899
641,40.768,-73.842
642,40.703,-73.9707
643,40.7837,-74.2437
644,40.6671,-74.0244
645,40.7472,-74.036
646,40.7315,-73.9894
647,40.7335,-74.0277
648,40.6978,-73.8573
649,40.7368,-73.9749
650,40.7675,-73.9614
651,40.7939,-73.939
652,40.8073,-74.0592
653,40.6546,-73.9662
654,40.7719,-74.0307
655,40.7365,-73.9337
656,40.7302,-74.1636
657,40.7555,-74.0015
658,40.8042,-73.9219
659,40.7221,-73.9861
660,40.7263,-73.9818
661,40.8701,-74.0956
662,40.7299,-73.9659
663,40.7554,-74.0036
664,40.6911,-73.9612
665,40.7505,-73.9764
666,40.7492,-73.9618
667,40.8903,-74.1443
668,40.7758,-73.9546
669,40.7694,-73.975
670,40.8825,-74.1042
671,40.7999,-74.0968
672,40.8653,-74.1748
673,40.646,-73.9884
674,40.7298,-73.9971
675,40.7641,-73.9656
676,40.7367,-73.9942
677,40.8426,-74.0966
678,40.8661,-74.0595
679,40.699,-73.9708
680,40.7345,-73.9866
681,40.7388,-73.9705
682,40.7569,-73.9633
683,40.7281,-73.9686
684,40.8594,-74.0932
685,40.7433,-73.9873
686,40.739,-73.9854
687,40.7552,-73.8599
688,40.7396,-73.9914
689,40.7344,-73.9587
690,40.7554,-73.9759
691,40.7648,-74.1832
692,40.7046,-73.9777
693,40.7698,-73.9596
694,40.7302,-73.9789
695,40.7896,-73.9661
696,40.8055,-73.9951
697,40.753,-73.9726
698,40.6759,-74.0591
699,40.6929,-74.0205
700,40.7478,-73.9884
701,40.7346,-73.9811
702,40.6533,-73.8997
703,40.7335,-73.9848
704,40.7455,-74.0619
705,40.622,-74.1438
706,40.7051,-73.8182
707,40.7652,-73.9146
708,40.7407,-73.8947
709,40.7251,-73.9769
710,40.8239,-73.8923
711,40.7762,-73.9665
712,40.7581,-73.9853
713,40.7455,-73.9756
714,40.8301,-73.9489
715,40.7387,-73.9656
716,40.7045,-74.0888
717,40.7629,-73.9656
718,40.8062,-73.9544
719,40.8501,-74.0496
720,40.8787,-74.2082
721,40.704,-73.9623
722,40.6341,-73.9899
723,40.7072,-73.9961
724,40.6492,-73.9818
725,40.7677,-73.9635
726,40.6842,-73.9435
727,40.7424,-73.9862
728,40.7419,-73.9941
729,40.923,-73.9991
730,40.7718,-73.978
731,40.7587,-73.9805
732,40.7307,-73.9905
733,40.7607,-73.986
734,40.9116,-74.0291
735,40.6457,-74.0945
736,40.7488,-73.9768
737,40.7331,-73.9939
738,40.7269,-74.012
739,40.8127,-73.9131
740,40.7316,-74.0556
741,40.8378,-74.0742
742,40.7155,-73.9578
743,40.6975,-73.9656
744,40.7497,-73.9851
745,40.732,-73.9749
746,40.7299,-74.0181
747,40.7042,-73.9833
748,40.8046,-73.8874
749,40.7564,-74.0642
750,40.7055,-73.9511
751,40.6986,-73.9829
752,40.8514,-74.1671
753,40.7465,-74.0344
754,40.7929,-73.9698
755,40.8978,-74.0002
756,40.7478,-73.9858
757,40.851,-74.0185
758,40.7053,-73.7803
759,40.7307,-73.9972
760,40.7406,-73.9816
761,40.673,-73.8913
762,40.7251,-73.9892
763,40.6858,-73.9732
764,40.7482,-73.9874
765,40.7886,-73.9139
766,40.7669,-73.9942
767,40.714,-74.0533
768,40.8193,-74.0285
769,40.794,-73.9415
770,40.8339,-73.8934
771,40.7428,-73.9792
772,40.7501,-73.9669
773,40.8059,-73.9518
774,40.7778,-73.9539
775,40.7522,-73.9172
776,40.6869,-73.9573
777,40.6469,-74.0024
778,40.7133,-73.997
779,40.805,-74.1167
780,40.7323,-73.9906
781,40.8581,-74.1001
782,40.754,-73.936
783,40.7386,-73.9886
784,40.6027,-73.9647
785,40.7248,-73.9672
786,40.7665,-73.9663
787,40.6601,-73.9687
788,40.7659,-73.9693
789,40.857,-73.9637
790,40.7204,-73.9373
791,40.7473,-73.9904
792,40.9087,-74.0491
793,40.742,-73.9877
794,40.7352,-74.1901
795,40.6362,-73.9439
796,40.85,-73.8034
797,40.7437,-73.9564
798,40.8237,-73.9008
799,40.7547,-73.9605
800,40.7494,-73.9878
801,40.7915,-73.9392
802,40.6587,-73.9921
803,40.762,-73.9995
804,40.7373,-73.9817
805,40.726,-73.9824
806,40.7377,-73.9807
807,40.8463,-73.8368
808,40.7156,-73.9535
809,40.7359,-73.9861
810,40.9082,-74.0654
811,40.7583,-74.0703
812,40.7532,-73.9821
813,40.7623,-73.9517
814,40.7343,-73.995
815,40.7517,-73.9029
816,40.9123,-74.0172
817,40.7908,-74.0687
818,40.7484,-73.9814
819,40.6575,-73.9238
820,40.7519,-73.968
821,40.729,-73.989
822,40.7425,-73.9598
823,40.7437,-73.981
824,40.8799,-74.0259
825,40.8205,-73.9405
826,40.7335,-73.9873
827,40.7832,-73.8129
828,40.7375,-73.8051
829,40.6686,-73.7803
830,40.7405,-73.9975
831,40.8806,-74.0462
832,40.7394,-73.9768
833,40.7357,-74.0041
834,40.8371,-74.1601
835,40.696,-73.9531
836,40.7769,-73.9509
837,40.6615,-73.9836
838,40.7144,-73.9482
839,40.8087,-73.9735
840,40.737,-74.0309
841,40.7454,-73.9844
842,40.7505,-73.9279
843,40.775,-73.9587
844,40.8143,-73.8984
845,40.8983,-74.0966
846,40.8404,-73.9299
847,40.7245,-73.9993
848,40.7052,-73.9852
849,40.7558,-73.9972
850,40.7296,-73.9774
851,40.7803,-74.063
852,40.7353,-73.9855
853,40.7602,-73.9382
854,40.6367,-74.0581
855,40.8287,-74.1478
856,40.736,-73.9817
857,40.7635,-73.9642
858,40.7311,-73.9865
859,40.6693,-74.0012
860,40.7786,-73.966
861,40.7988,-74.1466
862,40.7111,-73.9473
863,40.7277,-73.9876
864,40.683,-73.8791
865,40.707,-73.9947
866,40.7421,-73.9679
867,40.7077,-74.0714
868,40.744,-73.978
869,40.7329,-73.9529
870,40.7387,-74.1492
871,40.7884,-73.9262
872,40.7979,-73.9693
873,40.646,-74.0976
874,40.6872,-73.7246
875,40.7531,-73.9759
876,40.8708,-74.0961
877,40.6286,-73.9941
878,40.7274,-73.969
879,40.7419,-73.9738
880,40.7832,-73.9532
881,40.8142,-73.9402
882,40.7463,-73.9674
883,40.7178,-73.9151
884,40.7311,-73.9819
885,40.7564,-73.9661
886,40.7308,-73.9808
887,40.7419,-74.019
888,40.7331,-73.9923
889,40.9023,-74.0248
890,40.7279,-73.9626
891,40.86,-74.006
892,40.8202,-74.0293
893,40.7292,-73.9907
894,40.7324,-73.9603
895,40.9152,-73.7772
896,40.8821,-73.8504
897,40.7224,-73.9747
898,40.742,-73.9861
899,40.7234,-73.9825
900,40.7368,-74.0013
901,40.7119,-73.7753
902,40.8849,-74.0615
903,40.7439,-73.9823
904,40.7076,-73.9785
905,40.7247,-73.9628
906,40.7176,-73.9979
907,40.8166,-74.1895
908,40.7917,-73.9527
909,40.77,-74.1429
910,40.61,-73.9858
911,40.6902,-74.086
912,40.7446,-73.9715
913,40.7179,-73.9815
914,40.8267,-73.8251
915,40.6713,-73.8227
916,40.7046,-74.0601
917,40.7279,-73.9946
918,40.7463,-73.9819
919,40.7771,-73.7014
920,40.7134,-73.8552
921,40.7241,-73.8761
922,40.7325,-73.9638
923,40.6798,-74.0775
924,40.7392,-74.0728
925,40.7459,-73.9953
926,40.7107,-73.9939
927,40.7091,-73.9756
928,40.8106,-73.9392
929,40.7674,-73.9532
930,40.7386,-73.8761
931,40.7238,-73.9775
932,40.7919,-73.9592
933,40.7489,-73.9723
934,40.8255,-73.9751
935,40.7057,-73.8752
936,40.6757,-73.9455
937,40.7135,-73.9637
938,40.7385,-73.927
939,40.7558,-73.9689
940,40.7288,-73.9979
941,40.9278,-74.0718
942,40.7243,-73.9623
943,40.785,-74.0432
944,40.745,-73.9854
945,40.8397,-73.8921
946,40.6797,-73.7827
947,40.7198,-73.9738
948,40.733,-73.9983
949,40.7034,-73.9803
950,40.7908,-74.0538
951,40.7857,-73.9697
952,40.7422,-73.8304
953,40.7558,-73.9751
954,40.8815,-74.0255
955,40.7158,-74.1818
956,40.7044,-73.9758
957,40.7884,-73.9306
958,40.8019,-74.19
959,40.8292,-73.9396
960,40.7971,-73.9577
961,40.9305,-73.9771
962,40.7268,-73.986
963,40.7412,-73.9687
964,40.7725,-73.8283
965,40.725,-73.9321
966,40.7455,-73.9896
967,40.7186,-73.9757
968,40.8008,-73.952
969,40.7533,-73.9764
970,40.7661,-73.9707
971,40.7997,-73.9112
972,40.6512,-74.0646
973,40.747,-73.9883
974,40.7311,-73.8696
975,40.7983,-73.9037
976,40.7066,-73.9482
977,40.7335,-73.9896
978,40.7269,-73.9828
979,40.6295,-74.0408
980,40.7299,-73.9762
981,40.7314,-73.9811
982,40.7235,-73.9877
983,40.7425,-73.9764
984,40.7474,-73.9809
985,40.7407,-73.982
986,40.806,-74.1327
987,40.8007,-73.947
988,40.8394,-73.9291
989,40.7393,-73.9804
990,40.7242,-73.9006
991,40.738,-73.9692
992,40.639,-73.9732
993,40.6429,-73.9422
994,40.7184,-73.9794
995,40.6856,-73.896
996,40.8274,-74.1308
997,40.7946,-74.1528
998,40.7691,-73.9699
999,40.7626,-73.9697
1000,40.7316,-73.908
1001,40.7412,-73.9835
1002,40.7906,-73.9442
1003,40.7094,-73.9017
1004,40.69,-73.9482
1005,40.7424,-74.0698
1006,40.6843,-73.88
1007,40.7407,-73.9826
1008,40.7258,-73.8839
1009,40.7485,-73.9924
1010,40.8001,-74.1435
1011,40.7495,-74.0102
1012,40.7443,-73.9161
1013,40.7272,-73.9883
1014,40.7549,-73.9572
1015,40.7845,-73.9403
1016,40.9153,-74.0213
1017,40.8334,-73.8676
1018,40.7516,-73.9533
1019,40.7042,-73.9849
1020,40.6943,-73.9682
1021,40.6944,-73.98
1022,40.7478,-73.9935
1023,40.7526,-73.9835
1024,40.7449,-73.9446
1025,40.8174,-73.9057
1026,40.7283,-73.9749
1027,40.7329,-73.9793
1028,40.7114,-73.9817
1029,40.8506,-74.1389
1030,40.7379,-73.9803
1031,40.7603,-73.9726
1032,40.8769,-74.0712
1033,40.7694,-73.9895
1034,40.7403,-73.9988
1035,40.7373,-73.9814
1036,40.7642,-73.788
1037,40.7476,-73.9619
1038,40.7405,-73.9578
1039,40.7512,-73.9807
1040,40.746,-73.9844
1041,40.7134,-73.7846
1042,40.7367,-73.9814
1043,40.7181,-73.8466
1044,40.8008,-73.9361
1045,40.7387,-73.9857
1046,40.8673,-74.1875
1047,40.7527,-73.9047
1048,40.722,-73.991
1049,40.7297,-73.9838
1050,40.7023,-73.9576
1051,40.7493,-73.9983
1052,40.7323,-73.8397
1053,40.7512,-73.9835
1054,40.8628,-74.0952
1055,40.7324,-73.9907
1056,40.744,-73.9805
1057,40.7667,-73.8926
1058,40.7632,-73.953
1059,40.7198,-73.9631
1060,40.7845,-73.9603
1061,40.7606,-73.9861
1062,40.7506,-73.8776
1063,40.81,-74.1703
1064,40.7331,-73.9864
1065,40.725,-73.9575
1066,40.7597,-73.9842
1067,40.8164,-73.9991
1068,40.763,-73.9781
1069,40.7742,-74.1123
1070,40.7007,-73.9887
1071,40.7781,-73.9596
1072,40.7454,-73.9393
1073,40.7163,-73.9578
1074,40.7623,-73.9912
1075,40.8192,-73.9598
1076,40.7383,-73.9914
1077,40.7808,-73.9575
1078,40.7843,-74.133
1079,40.7515,-73.9741
1080,40.7505,-73.9759
1081,40.7412,-73.8483
1082,40.6817,-73.8943
1083,40.742,-73.9911
